Usuario: anonimo
2019/04/17 02:21:11am
Executou a query:  INSERT INTO relacionamento (sku, codigo) VALUES('11', 2), ('11', 1);Usuario: anonimo
2019/04/17 02:23:52am
Executou a query: UPDATE produtos SET nome='Teste semi-final', descricao='Teste semi-final', quantidade=1, preco=12.40 WHERE sku = '11';Usuario: anonimo
2019/04/17 02:23:55am
Executou a query:  INSERT INTO relacionamento (sku, codigo) VALUES('11', 1), ('11', 2);Usuario: anonimo
2019/04/17 02:25:14am
Executou a query: UPDATE produtos SET nome='Cleocin Phosphate', descricao='Fusion of 2 or more Cervical Vertebral Joints with Synthetic Substitute, Anterior Approach, Anterior Column, Open Approach', quantidade=30, preco=628 WHERE sku = '0009-0775';

Usuario: anonimo
2019/04/17 02:25:14am
Executou a query:  INSERT INTO relacionamento (sku, codigo) VALUES('0009-0775', 1), ('0009-0775', 2), ('0009-0775', 3);

Usuario: anonimo
2019/04/17 07:16:57pm
Executou a query: UPDATE produtos SET nome='Symbyax', descricao='Destruction of Stomach, Open Approach', quantidade=8, preco=9739.94 WHERE sku = '0002-3232';

Usuario: anonimo
2019/04/17 07:16:58pm
Executou a query:  INSERT INTO relacionamento (sku, codigo) VALUES('0002-3232', 1), ('0002-3232', 2);

Usuario: anonimo
2019/04/17 07:24:56pm
Executou a query: UPDATE produtos SET nome='Symbyax', descricao='Destruction of Stomach, Open Approach', quantidade=8, preco=9739.94 WHERE sku = '0002-3232';

Usuario: anonimo
2019/04/17 07:24:56pm
Executou a query:  INSERT INTO relacionamento (sku, codigo) VALUES('0002-3232', );

Usuario: anonimo
2019/04/17 07:25:00pm
Executou a query: UPDATE produtos SET nome='Symbyax', descricao='Destruction of Stomach, Open Approach', quantidade=8, preco=9739.94 WHERE sku = '0002-3232';

Usuario: anonimo
2019/04/17 07:25:00pm
Executou a query:  INSERT INTO relacionamento (sku, codigo) VALUES('0002-3232', 1);

Usuario: anonimo
2019/04/17 07:25:59pm
Executou a query: UPDATE produtos SET nome='Symbyax', descricao='Destruction of Stomach, Open Approach', quantidade=8, preco=9739.94 WHERE sku = '0002-3232';

Usuario: anonimo
2019/04/17 07:25:59pm
Executou a query:  INSERT INTO relacionamento (sku, codigo) VALUES('0002-3232', );

Usuario: anonimo
2019/04/17 07:26:44pm
Executou a query: UPDATE produtos SET nome='Symbyax', descricao='Destruction of Stomach, Open Approach', quantidade=8, preco=9739.94 WHERE sku = '0002-3232';

Usuario: anonimo
2019/04/17 07:26:44pm
Executou a query:  INSERT INTO relacionamento (sku, codigo) VALUES('0002-3232', 1);

